<?xml version="1.0" encoding="utf-8"?>
<!-- Generator: Adobe Illustrator 17.0.0, SVG Export Plug-In . SVG Version: 6.00 Build 0)  -->
<!DOCTYPE svg PUBLIC "-//W3C//DTD SVG 1.1//EN" "http://www.w3.org/Graphics/SVG/1.1/DTD/svg11.dtd">
<svg version="1.1" id="Layer_1" xmlns="http://www.w3.org/2000/svg" xmlns:xlink="http://www.w3.org/1999/xlink" x="0px" y="0px"
	 width="200px" height="200px" viewBox="0 0 200 200" enable-background="new 0 0 200 200" xml:space="preserve">
<path fill="#FFFFFF" d="M108.93,59.723H90.122V9.57l0,0c0.021-1.71-1.349-3.114-3.059-3.135c-0.025,0-0.05,0-0.076,0H30.565
	c-1.188-0.001-2.274,0.671-2.805,1.733L15.221,33.245h0.031c-0.23,0.432-0.354,0.912-0.36,1.401v56.423
	c0,1.731,1.403,3.135,3.135,3.135h25.077v12.538H30.565c-1.188-0.001-2.274,0.671-2.805,1.733l-12.538,25.077h0.031
	c-0.23,0.432-0.354,0.912-0.36,1.401v56.423c0,1.731,1.403,3.135,3.135,3.135h56.423c1.236-0.004,2.355-0.735,2.856-1.865l0,0
	l0.022-0.05l0,0L89.025,166.3h19.905v25.077c0,1.731,1.403,3.135,3.135,3.135h56.423c1.236-0.004,2.355-0.735,2.856-1.865l0,0
	l0.022-0.05l0,0l12.513-28.155c0.183-0.401,0.279-0.835,0.282-1.276v-53.288l0,0c0.021-1.71-1.349-3.114-3.059-3.135
	c-0.025,0-0.05,0-0.076,0h-37.615V94.204h25.077c1.236-0.004,2.355-0.735,2.856-1.865l0,0l0.022-0.05l0,0l12.513-28.155
	c0.183-0.401,0.279-0.835,0.282-1.276V9.57l0,0c0.021-1.71-1.349-3.114-3.059-3.135c-0.025,0-0.05,0-0.076,0h-56.423
	c-1.194-0.007-2.288,0.666-2.821,1.733l-12.538,25.077h0.031c-0.225,0.433-0.343,0.913-0.345,1.401V59.723z M77.584,65.992h4.58
	l-4.58,10.307V65.992z M77.584,59.723V35.386l6.269-12.538v36.875H77.584z M32.502,12.704h49.414l-9.404,18.808H23.098
	L32.502,12.704z M21.161,37.781h50.154v21.942H43.103v6.269h28.211v21.942H21.161V37.781z M32.502,113.011h10.601v18.808H23.098
	L32.502,113.011z M83.853,160.031h-6.269v-24.337l6.269-12.538V160.031z M72.512,131.819h-23.14v-18.808h32.543L72.512,131.819z
	 M71.315,188.242H21.161v-50.154h21.942V166.3h6.269v-28.211h21.942V188.242z M77.584,176.606V166.3h4.58L77.584,176.606z
	 M165.353,188.242h-50.154V166.3h28.211v-6.269h-28.211v-21.942h50.154V188.242z M117.136,131.819l9.404-18.808h10.601v18.808
	H117.136z M171.622,176.606v-40.913l6.269-12.538v39.346L171.622,176.606z M175.954,113.011l-9.404,18.808h-23.14v-18.808H175.954z
	 M137.141,106.742h-12.538c-1.194-0.007-2.288,0.666-2.821,1.733l-12.538,25.077h0.031c-0.225,0.433-0.343,0.913-0.345,1.401v25.077
	H90.122v-50.154l0,0c0.021-1.71-1.349-3.114-3.059-3.135c-0.025,0-0.05,0-0.076,0H49.372V94.204h25.077
	c1.236-0.004,2.355-0.735,2.856-1.865l0,0l0.022-0.05l0,0l11.698-26.296h19.905v25.077c0,1.731,1.403,3.135,3.135,3.135h25.077
	V106.742z M165.353,87.935h-21.942V59.723h-6.269v28.211h-21.942V37.781h50.154V87.935z M171.622,76.299V35.386l6.269-12.538v39.346
	L171.622,76.299z M126.54,12.704h49.414l-9.404,18.808h-49.414L126.54,12.704z"/>
<g>
</g>
<g>
</g>
<g>
</g>
<g>
</g>
<g>
</g>
<g>
</g>
</svg>
