<?xml version="1.0" encoding="utf-8"?>
<!-- Generator: Adobe Illustrator 17.0.0, SVG Export Plug-In . SVG Version: 6.00 Build 0)  -->
<!DOCTYPE svg PUBLIC "-//W3C//DTD SVG 1.1//EN" "http://www.w3.org/Graphics/SVG/1.1/DTD/svg11.dtd">
<svg version="1.1" id="Layer_1" xmlns="http://www.w3.org/2000/svg" xmlns:xlink="http://www.w3.org/1999/xlink" x="0px" y="0px"
	 width="200px" height="200px" viewBox="0 0 200 200" enable-background="new 0 0 200 200" xml:space="preserve">
<g>
	<path fill="#FFFFFF" d="M104.624,117.855c1.035,0,1.874-0.839,1.874-1.874c0-1.036-0.84-1.874-1.874-1.874H45.299
		c-0.149,0-0.278-0.131-0.278-0.278V45.299c0-0.148,0.131-0.278,0.278-0.278h90.41c0.147,0,0.278,0.131,0.278,0.278v32.988
		c0,1.035,0.84,1.874,1.874,1.874c1.035,0,1.874-0.839,1.874-1.874V45.299c0-2.221-1.806-4.027-4.027-4.027h-90.41
		c-2.221,0-4.027,1.806-4.027,4.027v68.529c0,2.219,1.806,4.027,4.027,4.027h33.785v11.319H64.673c-1.036,0-1.874,0.839-1.874,1.874
		c0,1.035,0.838,1.874,1.874,1.874h39.951c1.035,0,1.874-0.84,1.874-1.874c0-1.035-0.84-1.874-1.874-1.874h-2.701v-11.319H104.624z
		 M98.174,129.174H82.832v-11.319h15.342V129.174z M98.174,129.174"/>
	<path fill="#FFFFFF" d="M104.624,101.403h-53.98c-1.035,0-1.874,0.838-1.874,1.874c0,1.035,0.84,1.874,1.874,1.874h53.98
		c1.035,0,1.874-0.839,1.874-1.874C106.498,102.242,105.658,101.403,104.624,101.403L104.624,101.403z M104.624,101.403"/>
	<path fill="#FFFFFF" d="M154.701,83.91h-40.428c-2.221,0-4.027,1.806-4.027,4.027v66.765c0,2.221,1.806,4.027,4.027,4.027h40.428
		c2.221,0,4.027-1.806,4.027-4.027V87.937C158.728,85.716,156.922,83.91,154.701,83.91L154.701,83.91z M113.995,95.156h40.984v44.83
		h-40.984V95.156z M114.273,87.658h40.428c0.148,0,0.278,0.129,0.278,0.278v3.47h-40.984v-3.47
		C113.995,87.788,114.126,87.658,114.273,87.658L114.273,87.658z M154.701,154.98h-40.428c-0.149,0-0.278-0.131-0.278-0.278v-10.968
		h40.984v10.968C154.98,154.849,154.849,154.98,154.701,154.98L154.701,154.98z M154.701,154.98"/>
	<path fill="#FFFFFF" d="M138.235,147.482h-7.497c-1.035,0-1.874,0.84-1.874,1.874c0,1.035,0.84,1.874,1.874,1.874h7.497
		c1.036,0,1.874-0.839,1.874-1.874C140.109,148.322,139.271,147.482,138.235,147.482L138.235,147.482z M138.235,147.482"/>
</g>
<path fill-rule="evenodd" clip-rule="evenodd" fill="none" d="M100,5.5c52.191,0,94.5,42.309,94.5,94.5
	c0,52.191-42.309,94.5-94.5,94.5S5.5,152.191,5.5,100C5.5,47.809,47.809,5.5,100,5.5z"/>
<g>
</g>
<g>
</g>
<g>
</g>
<g>
</g>
<g>
</g>
<g>
</g>
</svg>
