<?xml version="1.0" encoding="utf-8"?>
<!-- Generator: Adobe Illustrator 17.0.0, SVG Export Plug-In . SVG Version: 6.00 Build 0)  -->
<!DOCTYPE svg PUBLIC "-//W3C//DTD SVG 1.1//EN" "http://www.w3.org/Graphics/SVG/1.1/DTD/svg11.dtd">
<svg version="1.1" id="Layer_1" xmlns="http://www.w3.org/2000/svg" xmlns:xlink="http://www.w3.org/1999/xlink" x="0px" y="0px"
	 width="200px" height="200px" viewBox="0 0 200 200" enable-background="new 0 0 200 200" xml:space="preserve">
<g>
	<g>
		<defs>
			<rect id="SVGID_1_" x="5.503" y="5.76" width="188.102" height="188.573"/>
		</defs>
		<clipPath id="SVGID_2_">
			<use xlink:href="#SVGID_1_"  overflow="visible"/>
		</clipPath>
		<path clip-path="url(#SVGID_2_)" fill="#FFFFFF" d="M184.052,80.018l-13.208-2.242c-1.376-4.442-3.146-8.726-5.307-12.814
			l7.784-10.89c3.301-4.639,2.791-10.968-1.257-14.977l-11.715-11.715c-2.201-2.201-5.111-3.421-8.217-3.421
			c-2.436,0-4.756,0.747-6.722,2.164l-10.928,7.783c-4.246-2.242-8.687-4.088-13.287-5.465l-2.201-13.05
			c-0.944-5.622-5.78-9.711-11.478-9.711h-16.55c-5.701,0-10.536,4.088-11.48,9.711l-2.279,13.365
			c-4.403,1.376-8.69,3.184-12.776,5.386l-10.81-7.785c-1.966-1.415-4.325-2.161-6.762-2.161c-3.106,0-6.054,1.219-8.215,3.421
			L26.888,39.331c-4.01,4.01-4.561,10.339-1.257,14.978l7.862,11.046c-2.163,4.127-3.893,8.411-5.229,12.855l-13.05,2.199
			c-5.622,0.944-9.711,5.78-9.711,11.48v16.55c0,5.699,4.088,10.534,9.711,11.478l13.365,2.281
			c1.376,4.401,3.184,8.688,5.386,12.776l-7.745,10.77c-3.302,4.639-2.791,10.968,1.257,14.978l11.715,11.714
			c2.201,2.202,5.111,3.421,8.217,3.421c2.436,0,4.757-0.746,6.722-2.161l11.046-7.862c3.97,2.082,8.137,3.774,12.421,5.109
			l2.201,13.208c0.944,5.622,5.78,9.711,11.479,9.711h16.59c5.701,0,10.536-4.088,11.479-9.711l2.24-13.208
			c4.444-1.376,8.728-3.144,12.816-5.307l10.889,7.783c1.966,1.415,4.325,2.164,6.76,2.164c3.106,0,6.016-1.219,8.217-3.421
			l11.715-11.715c4.01-4.01,4.559-10.338,1.257-14.978l-7.783-10.929c2.163-4.127,3.971-8.411,5.307-12.814l13.208-2.201
			c5.622-0.942,9.711-5.778,9.711-11.479V91.497C193.762,85.796,189.674,80.961,184.052,80.018L184.052,80.018z M183.148,108.046
			c0,0.511-0.353,0.942-0.864,1.021l-16.511,2.753c-2.083,0.353-3.735,1.887-4.246,3.893c-1.494,5.778-3.774,11.321-6.839,16.471
			c-1.062,1.808-0.983,4.049,0.234,5.778l9.711,13.68c0.274,0.394,0.236,0.983-0.117,1.338l-11.715,11.715
			c-0.277,0.274-0.551,0.313-0.749,0.313c-0.234,0-0.432-0.079-0.589-0.196l-13.64-9.711c-1.691-1.217-3.971-1.296-5.779-0.234
			c-5.15,3.065-10.692,5.345-16.471,6.839c-2.044,0.511-3.578,2.201-3.893,4.246l-2.791,16.511
			c-0.079,0.511-0.511,0.864-1.021,0.864H91.319c-0.511,0-0.944-0.353-1.023-0.864l-2.751-16.511
			c-0.355-2.082-1.887-3.735-3.893-4.246c-5.62-1.455-11.046-3.695-16.118-6.605c-0.825-0.47-1.768-0.706-2.672-0.706
			c-1.061,0-2.164,0.314-3.067,0.983l-13.759,9.787c-0.196,0.119-0.392,0.198-0.59,0.198c-0.157,0-0.472-0.04-0.746-0.315
			l-11.715-11.715c-0.353-0.353-0.394-0.904-0.117-1.336l9.67-13.563c1.219-1.729,1.296-4.01,0.236-5.818
			c-3.067-5.109-5.426-10.653-6.92-16.432c-0.551-2.004-2.202-3.537-4.246-3.891l-16.628-2.831
			c-0.511-0.079-0.863-0.511-0.863-1.021V91.89c0-0.513,0.353-0.944,0.863-1.023l16.393-2.75c2.084-0.355,3.773-1.887,4.286-3.931
			c1.453-5.78,3.695-11.361,6.722-16.511c1.061-1.808,0.942-4.048-0.276-5.739l-9.787-13.759c-0.277-0.393-0.236-0.983,0.117-1.336
			L46.15,35.126c0.276-0.277,0.551-0.315,0.746-0.315c0.236,0,0.434,0.079,0.591,0.196l13.561,9.67
			c1.73,1.219,4.01,1.298,5.818,0.236c5.111-3.065,10.653-5.424,16.432-6.918c2.004-0.551,3.538-2.202,3.891-4.246l2.831-16.628
			c0.079-0.513,0.511-0.865,1.021-0.865h16.552c0.511,0,0.942,0.353,1.021,0.865l2.752,16.393c0.353,2.083,1.887,3.773,3.931,4.284
			c5.935,1.493,11.596,3.814,16.865,6.92c1.808,1.062,4.048,0.983,5.778-0.236l13.563-9.749c0.196-0.119,0.394-0.198,0.589-0.198
			c0.158,0,0.472,0.04,0.747,0.314l11.715,11.715c0.353,0.355,0.393,0.904,0.119,1.338l-9.711,13.64
			c-1.219,1.691-1.297,3.971-0.236,5.779c3.067,5.15,5.346,10.692,6.841,16.471c0.511,2.044,2.199,3.576,4.244,3.891l16.511,2.791
			c0.511,0.079,0.866,0.513,0.866,1.023v16.549H183.148z M183.148,108.046"/>
	</g>
	<path fill="#FFFFFF" d="M99.613,59.144c-22.406,0-40.608,18.2-40.608,40.608c0,22.406,18.202,40.606,40.608,40.606
		c22.408,0,40.608-18.2,40.608-40.606C140.221,77.345,122.02,59.144,99.613,59.144L99.613,59.144z M99.613,129.746
		c-16.55,0-29.994-13.444-29.994-29.994c0-16.549,13.444-29.996,29.994-29.996c16.549,0,29.994,13.446,29.994,29.996
		C129.606,116.302,116.162,129.746,99.613,129.746L99.613,129.746z M99.613,129.746"/>
</g>
<g>
</g>
<g>
</g>
<g>
</g>
<g>
</g>
<g>
</g>
<g>
</g>
</svg>
