<?xml version="1.0" encoding="utf-8"?>
<!-- Generator: Adobe Illustrator 17.0.0, SVG Export Plug-In . SVG Version: 6.00 Build 0)  -->
<!DOCTYPE svg PUBLIC "-//W3C//DTD SVG 1.1//EN" "http://www.w3.org/Graphics/SVG/1.1/DTD/svg11.dtd">
<svg version="1.1" id="Layer_1" xmlns="http://www.w3.org/2000/svg" xmlns:xlink="http://www.w3.org/1999/xlink" x="0px" y="0px"
	 width="200px" height="200px" viewBox="0 0 200 200" enable-background="new 0 0 200 200" xml:space="preserve">
<g>
	<g>
		<path fill="#FFFFFF" d="M171.992,45.019H27.212c-2.558,0-4.638,2.08-4.638,4.636v85.588c0,2.556,2.08,4.638,4.638,4.638h144.78
			c2.556,0,4.638-2.082,4.638-4.638V49.657C176.63,47.098,174.549,45.019,171.992,45.019L171.992,45.019z M172.616,135.243
			c0,0.343-0.281,0.623-0.623,0.623H27.212c-0.343,0-0.623-0.28-0.623-0.623V49.657c0-0.343,0.28-0.623,0.623-0.623h144.78
			c0.343,0,0.623,0.28,0.623,0.623V135.243z M172.616,135.243"/>
		<path fill="#FFFFFF" d="M190.378,142.892h-4.715V47.455c0-6.324-5.146-11.47-11.47-11.47H25.011c-6.324,0-11.47,5.146-11.47,11.47
			v95.437H8.826c-1.662,0-3.011,1.347-3.011,3.011v8.271c0,5.375,4.372,9.745,9.745,9.745h168.085c5.373,0,9.745-4.372,9.745-9.745
			v-8.271C193.389,144.239,192.041,142.892,190.378,142.892L190.378,142.892z M19.563,47.455c0-3.003,2.444-5.448,5.448-5.448
			h149.183c3.003,0,5.446,2.442,5.446,5.448v95.437H19.563V47.455z M90.77,148.914h17.664v1.574c0,0.704-0.574,1.278-1.278,1.278
			H92.048c-0.706,0-1.28-0.573-1.28-1.278v-1.574H90.77z M187.367,154.176c0,2.052-1.671,3.722-3.723,3.722H15.56
			c-2.053,0-3.723-1.67-3.723-3.722v-5.262h74.918v1.574c0,2.919,2.374,5.293,5.293,5.293h15.109c2.919,0,5.292-2.374,5.292-5.293
			v-1.574h74.918V154.176z M187.367,154.176"/>
	</g>
</g>
<g>
</g>
<g>
</g>
<g>
</g>
<g>
</g>
<g>
</g>
<g>
</g>
</svg>
